…
h %>% 
  count(case.include)

## # A tibble: 1 x 2
##   case.include     n
##   <lgl>        <int>
## 1 TRUE          6842

The data were collected in 59 locations with sample sizes ranging from 34 to 325.

h %>% 
  count(Location) %>% 
  arrange(desc(n))

## # A tibble: 59 x 2
##    Location                                                                                        n
##    <chr>                                                                                       <int>
##  1 University of Toronto, Scarborough                                                            325
##  2 MTurk India Workers                                                                           308
##  3 MTurk US Workers                                                                              304
##  4 University of Illinois at Urbana-Champaign, Champaign, IL                                     198
##  5 Eotvos Lorand University, in Budapest, Hungary                                                180
##  6 Department of Social Psychology, Tilburg University, P.O. Box 90153, Tilburg, 5000 LE, Net…   173
##  7 Department of Psychology, San Diego State University, San Diego, CA 92182                     171
##  8 Department of Psychology, Pennsylvania State University Abington, Abington, PA 19001          166
##  9 American University of Sharjah, United Arab Emirates                                          162
## 10 University of British Columbia, Vancouver, Canada                                             147
## # … with 49 more rows
…
glms <-
  h %>% 
  select(loc, y, factor) %>% 
  nest(data = c(y, factor)) %>% 
  mutate(glm = map(data, ~update(glm0, data = .))) %>% 
  mutate(coef = map(glm, tidy)) %>% 
  select(-data, -glm) %>% 
  unnest(coef) %>% 
  filter(term == "factorSideEffect")

# what did we do?
glms %>% 
  mutate_if(is.double, round, digits = 3)

## # A tibble: 59 x 6
##    loc   term             estimate std.error statistic p.value
##    <fct> <chr>               <dbl>     <dbl>     <dbl>   <dbl>
##  1 1     factorSideEffect     2.32     0.475      4.89       0
##  2 2     factorSideEffect     3.64     0.644      5.64       0
##  3 3     factorSideEffect     2.37     0.399      5.96       0
##  4 4     factorSideEffect     2.24     0.263      8.54       0
##  5 5     factorSideEffect     2.02     0.505      4.00       0
##  6 6     factorSideEffect     2.49     0.571      4.36       0
##  7 7     factorSideEffect     2.53     0.658      3.84       0
##  8 8     factorSideEffect     1.78     0.459      3.87       0
##  9 9     factorSideEffect     1.81     0.378      4.79       0
## 10 10    factorSideEffect     2.37     0.495      4.79       0
## # … with 49 more rows
…
