…
For a detailed explanation of all those elements, see the loo reference manual (Vehtari et al., 2020). For our purposes, we’ll focus on the pareto_k. Here’s a glimpse of what it contains for the b1 model.

loo_b1$diagnostics$pareto_k %>% as_tibble()

## # A tibble: 100 x 1
##       value
##       <dbl>
##  1  0.817  
##  2  0.600  
##  3  0.0139 
##  4 -0.0705 
##  5 -0.0817 
##  6 -0.00611
##  7  0.0431 
##  8  0.00514
##  9  0.111  
## 10  0.0629 
## # … with 90 more rows
…
